{
	"comments": {
		"lineComment": "%"
	},
	"brackets": [
		["{", "}"],
		["[", "]"],
		["(", ")"]
	],
	"autoClosingPairs": [
		["{", "}"],
		["[", "]"],
		["(", ")"],
		["$", "$"],
		["`", "'"]
	],
	"surroundingPairs": [
		["{", "}"],
		["[", "]"],
		["(", ")"],
		["\"", "\""],
		["'", "'"],
		["`", "'"],
		["$", "$"]
	],
	"indentationRules": {
		"increaseIndentPattern": "(\\\\begin{(?!document))|(\\\\documentclass)",
		"decreaseIndentPattern": "(\\\\end{)|(\\\\begin{document})"
	}
}