{
    "fileTypes": [
        "tstex"
    ],
    "keyEquivalent": "^~L",
    "name": "tstex",
    "patterns": [
        {
            "begin": "(?<!\\\\\\\\)\\\\(?!left)([\\w.]*)\\(",
            "beginCaptures": {
                "1": {
                    "name": "keyword.control.function-call.tstex"
                }
            },
            "end": "\\);",
            "patterns": [
                {
                    "include": "source.ts"
                }
            ]
        },
        {
            "include": "text.tex.latex"
        }
    ],
    "repository": [
    ],
    "scopeName": "text.tex.latex.tstex",
    "uuid": "3BEEA10C-6B1D-11D9-B8AD-000D93589AF6"
}